<svg id="No" xmlns="http://www.w3.org/2000/svg" width="40" height="40" viewBox="0 0 40 40">
  <circle id="Ellipse_111" data-name="Ellipse 111" cx="20" cy="20" r="20" fill="#de4847"/>
  <g id="Symbol_85_1" data-name="Symbol 85 – 1" transform="translate(-1052 -298)">
    <path id="Union_3" data-name="Union 3" d="M7.778,9.192,1.414,15.557,0,14.142,6.364,7.778,0,1.414,1.414,0,7.778,6.364,14.142,0l1.415,1.414L9.192,7.778l6.364,6.364-1.415,1.415Z" transform="translate(1064 310)" fill="#fff"/>
  </g>
</svg>
